{
  "dependencies": {
    "LendFoundry.Security.Tokens.Abstractions": "1.0.0-develop-*",
    "LendFoundry.Foundation.Logging": "1.0.10-develop-*",
    "LendFoundry.Clients.DecisionEngine": "2.0.1-develop-*",

    "Microsoft.Framework.DependencyInjection.Abstractions": "1.0.0-beta8",
    "Microsoft.Net.Http.Headers": "1.0.0-beta8",

    "LendFoundry.Configuration.Client": "1.0.8-develop-*",
    "LendFoundry.EventHub.Abstractions": "3.0.1-develop-*",
    "LendFoundry.EventHub.Client": "3.0.1-develop-*",
    "LendFoundry.NumberGenerator.Abstractions": "1.0.1-develop-*",
    "LendFoundry.NumberGenerator.Client": "1.0.1-develop-*",
    "LendFoundry.Security.Tokens": "1.0.8-develop-*",
    "LendFoundry.Security.Client": "1.0.1-develop-*",
    "LendFoundry.Tenant.Abstractions": "1.0.2-develop-*",
    "LendFoundry.Tenant.Client": "1.0.10-develop-*",
    "LendFoundry.Security.Identity.Abstractions": "1.0.1-develop-*",
    "LendFoundry.Business.Application.Client": "1.0.1-develop-*",
    "LendFoundry.Business.Application.Abstractions": "1.0.1-develop-*",
    "LendFoundry.ProductRule.Abstractions": "2.0.1-develop-*",
    "LendFoundry.ProductRule.Client": "2.0.1-develop-*",
    "LendFoundry.Foundation.Lookup.Abstractions": "1.0.1-develop-*",
    "LendFoundry.Foundation.Lookup.Client": "1.0.1-develop-*",
    "LendFoundry.DataAttributes.Abstractions": "2.1.0-develop-*",
    "LendFoundry.DataAttributes.Client": "2.1.0-develop-*",
    "LendFoundry.Foundation.Documentation": "1.0.0-develop-*",
    "LendFoundry.Foundation.Client": "1.0.0-develop-*",

    "System.Reflection.Metadata": "1.5.0",

    "LendFoundry.Foundation.Services": "1.0.12-develop-*",
    "LendFoundry.Foundation.Persistence.Mongo": "1.0.2-develop-*",

    "LendFoundry.Foundation.Persistence": "1.0.2-develop-*",
    "LendFoundry.Cashflow.Abstractions": "",


    "System.Web.Http.Common": "4.0.20126.16343",
    "Microsoft.CSharp": "4.0.0",


    "LendFoundry.Application.Document.Abstractions": "1.0.2-develop-*",
    "LendFoundry.Application.Document.Client": "1.0.2-develop-*",

    "LendFoundry.DocumentGenerator.Abstractions": "1.0.0-develop-*",
    "LendFoundry.DocumentGenerator.Client": "1.0.1-develop-*",
    "PdfSharp": "1.32.3057"
  },
  "frameworks": {
    "dnx451": { }
  },
  "version": "1.0.1"
}